%!PS-Adobe-3.0 EPSF-3.0 
%%BoundingBox: 0 0 680 595
%%Pages: 0
%%Creator: LibreOffice 5.3
%%Title: none
%%CreationDate: none
%%LanguageLevel: 2
%%EndComments
%%BeginProlog
%%BeginResource: procset SDRes-Prolog 1.0 0
/b4_inc_state save def
/dict_count countdictstack def
/op_count count 1 sub def
userdict begin
0 setgray 0 setlinecap 1 setlinewidth 0 setlinejoin 10 setmiterlimit[] 0 setdash newpath
/languagelevel where {pop languagelevel 1 ne {false setstrokeadjust false setoverprint} if} if
/bdef {bind def} bind def
/c {setrgbcolor} bdef
/l {neg lineto} bdef
/rl {neg rlineto} bdef
/lc {setlinecap} bdef
/lj {setlinejoin} bdef
/lw {setlinewidth} bdef
/ml {setmiterlimit} bdef
/ld {setdash} bdef
/m {neg moveto} bdef
/ct {6 2 roll neg 6 2 roll neg 6 2 roll neg curveto} bdef
/r {rotate} bdef
/t {neg translate} bdef
/s {scale} bdef
/sw {show} bdef
/gs {gsave} bdef
/gr {grestore} bdef
/f {findfont dup length dict begin
{1 index /FID ne {def} {pop pop} ifelse} forall /Encoding ISOLatin1Encoding def
currentdict end /NFont exch definefont pop /NFont findfont} bdef
/p {closepath} bdef
/sf {scalefont setfont} bdef
/ef {eofill}bdef
/pc {closepath stroke}bdef
/ps {stroke}bdef
/pum {matrix currentmatrix}bdef
/pom {setmatrix}bdef
/bs {/aString exch def /nXOfs exch def /nWidth exch def currentpoint nXOfs 0 rmoveto pum nWidth aString stringwidth pop div 1 scale aString show pom moveto} bdef
%%EndResource
%%EndProlog
%%BeginSetup
%%EndSetup
%%Page: 1 1
%%BeginPageSetup
%%EndPageSetup
pum
0.02833 0.02833 s 
0 -21000 t
/tm matrix currentmatrix def
gs
0 0 m 23999 0 l 23999 20999 l 0 20999 l 0 0 l eoclip newpath
gs
0 0 m 23999 0 l 23999 20999 l 0 20999 l 0 0 l eoclip newpath
gs
1 lj 0.003 0.003 0.003 c 2400 19751 m  3059 19092 l  ps
2400 20462 m  3770 19092 l  ps
3074 20499 m  4481 19092 l  ps
3785 20499 m  5192 19092 l  ps
4496 20499 m  5903 19092 l  ps
5207 20499 m  6614 19092 l  ps
5918 20499 m  7325 19092 l  ps
6629 20499 m  8036 19092 l  ps
7340 20499 m  8747 19092 l  ps
8051 20499 m  9458 19092 l  ps
8762 20499 m  10169 19092 l  ps
9473 20499 m  10880 19092 l  ps
10184 20499 m  11591 19092 l  ps
10895 20499 m  12302 19092 l  ps
11606 20499 m  13013 19092 l  ps
12317 20499 m  13724 19092 l  ps
13028 20499 m  14435 19092 l  ps
13739 20499 m  15146 19092 l  ps
14450 20499 m  15857 19092 l  ps
15161 20499 m  16568 19092 l  ps
15872 20499 m  17279 19092 l  ps
16583 20499 m  17990 19092 l  ps
17294 20499 m  18701 19092 l  ps
18005 20499 m  19412 19092 l  ps
18716 20499 m  20123 19092 l  ps
19427 20499 m  20834 19092 l  ps
20138 20499 m  21545 19092 l  ps
20849 20499 m  21700 19648 l  ps
21560 20499 m  21700 20359 l  ps
gr
0 lw 1 lj 0.003 0.003 0.003 c 2616 19093 m  21377 19093 l  ps
11996 19327 m  7072 19327 l  7072 18858 l  16920 18858 l  16920 19327 l 
11996 19327 l  p ef
11996 19327 m  7072 19327 l  7072 18858 l  16920 18858 l  16920 19327 l 
11996 19327 l  pc
[ 121.275 80.84999 ] 0 ld
11996 19093 m  11996 332 l  ps
gs
1 lw [ ] 0 ld
10659 16160 m  11667 15152 l  ps
10686 16545 m  11815 15416 l  ps
10792 16851 m  11962 15681 l  ps
10791 17264 m  12108 15947 l  ps
10798 17669 m  12254 16213 l  ps
10944 17935 m  12038 16841 l  ps
11486 15119 m  11857 15490 l  ps
11251 15296 m  12361 16406 l  ps
11083 15540 m  12129 16586 l  ps
10916 15785 m  12032 16901 l  ps
10748 16029 m  11994 17275 l  ps
10599 16292 m  11737 17430 l  ps
10815 16920 m  11477 17582 l  ps
10787 17304 m  11255 17772 l  ps
10870 17799 m  11067 17996 l  ps
gr
[ ] 0 ld
11293 15234 m  10589 16262 l  10823 16943 l  10758 17595 l  11013 18060 l 
11355 17654 l  11994 17279 l  12059 16627 l  12379 16439 l  11868 15510 l 
11608 15046 l  11293 15234 l  pc
1.000 1.000 1.000 c 10816 15747 m  12252 15889 l  12012 14654 l  11293 14583 l 
10816 15747 l  p
10816 15747 m  10816 15747 l  p
12371 14690 m  12371 14690 l  p ef
0.003 0.003 0.003 c 10816 15747 m  12252 15889 l  12012 14654 l  11293 14583 l 
10816 15747 l  pc
10816 15747 m  10816 15747 l  pc
12371 14690 m  12371 14690 l  pc
1.000 1.000 1.000 c 11618 14858 m  10901 14787 l  11900 4741 l  13335 4883 l 
12336 14929 l  11618 14858 l  p ef
0.003 0.003 0.003 c 11618 14858 m  10901 14787 l  11900 4741 l  13335 4883 l 
12336 14929 l  11618 14858 l  pc
[ 134.75 134.75 26.94999 134.75 ] 0 ld
12741 3615 m  11415 17015 l  ps
gr
gs
0 0 m 23999 0 l 23999 20999 l 0 20999 l 0 0 l eoclip newpath
gr
gr
0 21000 t 
pom
count op_count sub {pop} repeat countdictstack dict_count sub {end} repeat b4_inc_state restore
%%PageTrailer
%%Trailer
%%EOF
