%!PS-Adobe-3.0 EPSF-3.0 
%%BoundingBox: 0 0 794 595
%%Pages: 0
%%Creator: LibreOffice 5.3
%%Title: none
%%CreationDate: none
%%LanguageLevel: 2
%%EndComments
%%BeginProlog
%%BeginResource: procset SDRes-Prolog 1.0 0
/b4_inc_state save def
/dict_count countdictstack def
/op_count count 1 sub def
userdict begin
0 setgray 0 setlinecap 1 setlinewidth 0 setlinejoin 10 setmiterlimit[] 0 setdash newpath
/languagelevel where {pop languagelevel 1 ne {false setstrokeadjust false setoverprint} if} if
/bdef {bind def} bind def
/c {setrgbcolor} bdef
/l {neg lineto} bdef
/rl {neg rlineto} bdef
/lc {setlinecap} bdef
/lj {setlinejoin} bdef
/lw {setlinewidth} bdef
/ml {setmiterlimit} bdef
/ld {setdash} bdef
/m {neg moveto} bdef
/ct {6 2 roll neg 6 2 roll neg 6 2 roll neg curveto} bdef
/r {rotate} bdef
/t {neg translate} bdef
/s {scale} bdef
/sw {show} bdef
/gs {gsave} bdef
/gr {grestore} bdef
/f {findfont dup length dict begin
{1 index /FID ne {def} {pop pop} ifelse} forall /Encoding ISOLatin1Encoding def
currentdict end /NFont exch definefont pop /NFont findfont} bdef
/p {closepath} bdef
/sf {scalefont setfont} bdef
/ef {eofill}bdef
/pc {closepath stroke}bdef
/ps {stroke}bdef
/pum {matrix currentmatrix}bdef
/pom {setmatrix}bdef
/bs {/aString exch def /nXOfs exch def /nWidth exch def currentpoint nXOfs 0 rmoveto pum nWidth aString stringwidth pop div 1 scale aString show pom moveto} bdef
%%EndResource
%%EndProlog
%%BeginSetup
%%EndSetup
%%Page: 1 1
%%BeginPageSetup
%%EndPageSetup
pum
0.02835 0.02833 s 
0 -21000 t
/tm matrix currentmatrix def
gs
tm setmatrix
-1077 -1105 t 
1 1 s 
1077 1105 m 29076 1105 l 29076 22104 l 1077 22104 l 1077 1105 l eoclip newpath
gs
1077 1105 m 29076 1105 l 29076 22104 l 1077 22104 l 1077 1105 l eoclip newpath
21 lw 1 lj 0.003 0.003 0.003 c 1766 21662 m  5023 21643 l  ps
5528 21640 m  4999 21462 l  5000 21823 l  5528 21640 l  p ef
1766 21662 m  1741 17567 l  ps
1738 17049 m  1566 17592 l  1918 17589 l  1738 17049 l  p ef
0.003 0.003 0.042 c 16018 9678 m  26694 9678 l  ps
27199 9678 m  26671 9498 l  26671 9859 l  27199 9678 l  p ef
0.003 0.003 0.003 c 16018 9678 m  16018 3781 l  ps
16018 3263 m  15843 3805 l  16195 3805 l  16018 3263 l  p ef
1 lw 16018 9678 m  8068 15617 l  ps
7694 15897 m  8180 15738 l  7991 15470 l  7694 15897 l  p ef
59 lw 16018 9678 m  23258 4512 l  ps
23739 4169 m  23119 4356 l  23352 4700 l  23739 4169 l  p ef
16018 9678 m  16018 18441 l  ps
16018 19041 m  16223 18414 l  15815 18414 l  16018 19041 l  p ef
16018 9678 m  19566 3437 l  ps
19861 2919 m  19376 3357 l  19728 3568 l  19861 2919 l  p ef
pum
6355 15772 t
651 -431 m  651 -485 l  620 -482 593 -482 562 -482 ct 531 -482 496 -482 464 -485 ct 
464 -431 l  495 -431 505 -426 514 -422 ct 513 -417 513 -415 508 -406 ct 377 -135 l 
234 -431 l  290 -431 l  290 -485 l  156 -482 l  117 -482 95 -482 31 -485 ct 
31 -431 l  99 -431 l  295 -26 l  305 -5 313 5 341 5 ct 368 5 377 -5 387 -26 ct 
571 -409 l  579 -424 582 -431 651 -431 ct p ef
pom
pum
20104 3142 t
851 -471 m  827 -736 l  71 -736 l  47 -471 l  103 -471 l  114 -592 123 -682 284 -682 ct 
370 -682 l  370 -54 l  203 -54 l  203 0 l  251 -3 393 -3 450 -3 ct 507 -3 648 -3 696 0 ct 
696 -54 l  529 -54 l  529 -682 l  615 -682 l  775 -682 784 -590 795 -471 ct 
851 -471 l  p ef
pom
pum
24145 4686 t
917 -369 m  917 -601 757 -749 527 -749 ct 46 -749 l  46 -695 l  164 -695 l 
164 -54 l  46 -54 l  46 0 l  529 0 l  746 0 917 -132 917 -369 ct p
752 -369 m  752 -263 752 -54 483 -54 ct 316 -54 l  316 -695 l  482 -695 l 
568 -695 649 -668 697 -608 ct 745 -547 752 -469 752 -369 ct p ef
pom
pum
16530 17598 t
1305 -695 m  1305 -749 l  1251 -746 1212 -746 1184 -746 ct 1136 -746 1084 -746 1036 -749 ct 
1036 -695 l  1065 -695 1115 -695 1147 -683 ct 954 -196 l  758 -695 l  862 -695 l 
862 -749 l  823 -746 716 -746 672 -746 ct 620 -746 550 -746 501 -749 ct 501 -695 l 
594 -695 l  637 -588 l  482 -196 l  285 -695 l  389 -695 l  389 -749 l 
351 -746 244 -746 199 -746 ct 147 -746 78 -746 28 -749 ct 28 -695 l  121 -695 l 
389 -21 l  396 -2 401 10 430 10 ct 460 10 465 -3 472 -21 ct 666 -513 l  862 -21 l 
868 -3 874 10 903 10 ct 917 10 933 7 939 -5 ct 1202 -670 l  1210 -689 1211 -690 1245 -693 ct 
1266 -695 1283 -695 1305 -695 ct p ef
pom
pum
2208 21369 t
880 -482 m  880 -651 775 -770 621 -770 ct 395 -770 164 -517 164 -261 ct 164 -87 274 24 424 24 ct 
649 24 880 -224 880 -482 ct p
787 -523 m  787 -311 636 -9 431 -9 ct 348 -9 262 -70 262 -233 ct 262 -312 288 -477 379 -600 ct 
446 -688 535 -739 614 -739 ct 701 -739 787 -675 787 -523 ct p ef
pom
pum
6275 21590 t
546 -156 m  546 -169 532 -169 527 -169 ct 512 -169 511 -165 507 -151 ct 476 -52 416 -15 376 -15 ct 
339 -15 322 -46 322 -84 ct 322 -107 327 -122 344 -197 ct 382 -345 l  401 -420 438 -456 475 -456 ct 
498 -456 518 -447 525 -440 ct 498 -432 485 -410 485 -389 ct 485 -367 501 -354 522 -354 ct 
550 -354 575 -378 575 -412 ct 575 -458 529 -483 476 -483 ct 420 -483 384 -438 369 -411 ct 
347 -463 301 -483 261 -483 ct 149 -483 88 -340 88 -315 ct 88 -302 102 -302 107 -302 ct 
122 -302 123 -306 128 -321 ct 152 -402 207 -456 259 -456 ct 295 -456 311 -424 311 -388 ct 
311 -365 305 -340 290 -280 ct 252 -131 l  234 -56 201 -15 158 -15 ct 129 -15 110 -31 110 -31 ct 
138 -39 150 -63 150 -82 ct 150 -104 132 -117 112 -117 ct 86 -117 59 -95 59 -59 ct 
59 -10 111 12 157 12 ct 211 12 247 -30 264 -59 ct 282 -16 322 12 372 12 ct 487 12 546 -133 546 -156 ct 
p ef
pom
pum
2446 17280 t
602 -156 m  602 -169 587 -169 583 -169 ct 568 -169 567 -166 560 -143 ct 549 -104 519 -15 460 -15 ct 
451 -15 437 -16 437 -46 ct 437 -72 450 -107 459 -131 ct 478 -184 523 -305 523 -367 ct 
523 -440 479 -483 403 -483 ct 343 -483 295 -456 257 -415 ct 333 -723 l  336 -738 337 -739 337 -743 ct 
337 -757 328 -759 309 -757 ct 195 -747 l  179 -746 168 -745 168 -726 ct 168 -712 179 -712 198 -712 ct 
249 -712 249 -703 249 -694 ct 249 -694 249 -686 245 -670 ct 87 -40 l  83 -25 83 -23 83 -19 ct 
83 -2 95 12 116 12 ct 150 12 156 -15 164 -48 ct 177 -95 177 -97 188 -142 ct 223 -284 l 
235 -329 257 -370 289 -403 ct 306 -420 342 -456 401 -456 ct 442 -456 452 -420 452 -385 ct 
452 -321 405 -192 387 -143 ct 373 -107 371 -101 371 -78 ct 371 -19 413 12 458 12 ct 
561 12 602 -149 602 -156 ct p ef
pom
1 lw 15998 5962 m  16156 5933 16293 5921 16455 5921 ct 16832 5921 17152 5988 17477 6138 ct 
17616 6202 17547 6171 17580 6187 ct ps
17844 6351 m  17622 6086 l  17511 6275 l  17844 6351 l  p ef
16052 6583 m  16115 6581 16169 6580 16232 6580 ct 16754 6580 17197 6649 17650 6803 ct 
18101 6957 18393 7129 18647 7374 ct ps
18850 7611 m  18716 7290 l  18555 7438 l  18850 7611 l  p ef
pum
16520 5545 t
515 -199 m  528 -236 538 -274 543 -310 ct 545 -327 546 -344 547 -360 ct 543 -411 526 -455 499 -493 ct 
459 -555 401 -642 408 -691 ct 408 -697 410 -704 415 -709 ct 420 -719 431 -729 441 -734 ct 
454 -740 465 -741 477 -741 ct 526 -739 552 -704 592 -686 ct 596 -685 599 -684 603 -684 ct 
618 -684 636 -694 646 -708 ct 649 -715 653 -721 653 -728 ct 655 -742 648 -753 634 -756 ct 
595 -766 550 -777 511 -777 ct 501 -777 491 -776 483 -775 ct 466 -772 449 -767 434 -757 ct 
418 -749 405 -736 395 -720 ct 383 -704 377 -685 375 -665 ct 367 -607 392 -537 418 -476 ct 
371 -466 326 -443 283 -410 ct 223 -363 177 -301 155 -238 ct 145 -215 140 -193 137 -171 ct 
132 -131 138 -94 154 -62 ct 178 -16 226 12 287 12 ct 383 12 474 -92 515 -199 ct 
p
440 -178 m  410 -98 359 -12 291 -12 ct 246 -12 217 -37 205 -74 ct 199 -94 197 -117 200 -141 ct 
204 -170 214 -202 226 -232 ct 247 -289 276 -347 325 -393 ct 356 -421 392 -443 426 -453 ct 
430 -447 l  447 -408 461 -367 464 -321 ct 466 -303 465 -285 462 -266 ct 459 -238 452 -207 440 -178 ct 
p ef
pom
pum
18520 6972 t
655 -546 m  664 -618 663 -770 552 -770 ct 400 -770 193 -462 163 -212 ct 149 -109 166 12 265 12 ct 
419 12 624 -302 655 -546 ct p
529 -397 m  301 -397 l  328 -467 361 -554 415 -631 ct 450 -685 498 -746 547 -746 ct 
601 -746 599 -676 592 -614 ct 585 -561 569 -505 529 -397 ct p
515 -362 m  497 -312 462 -219 411 -140 ct 363 -66 315 -12 268 -12 ct 232 -12 213 -44 226 -145 ct 
231 -191 246 -255 288 -362 ct 515 -362 l  p ef
pom
16007 13443 m  15906 13453 15821 13458 15719 13458 ct 15247 13458 14845 13363 14437 13153 ct 
14028 12944 13734 12683 13498 12320 ct 13392 12157 13415 12186 13381 12119 ct 
ps
13260 11827 m  13289 12176 l  13486 12088 l  13260 11827 l  p ef
pum
14325 12650 t
655 -546 m  664 -618 663 -770 552 -770 ct 400 -770 193 -462 163 -212 ct 149 -109 166 12 265 12 ct 
419 12 624 -302 655 -546 ct p
529 -397 m  301 -397 l  328 -467 361 -554 415 -631 ct 450 -685 498 -746 547 -746 ct 
601 -746 599 -676 592 -614 ct 585 -561 569 -505 529 -397 ct p
515 -362 m  497 -312 462 -219 411 -140 ct 363 -66 315 -12 268 -12 ct 232 -12 213 -44 226 -145 ct 
231 -191 246 -255 288 -362 ct 515 -362 l  p ef
pom
pum
26847 9221 t
688 0 m  688 -54 l  622 -54 614 -54 614 -96 ct 614 -491 l  412 -483 l  412 -429 l 
477 -429 486 -429 486 -386 ct 486 -179 l  486 -91 429 -37 345 -37 ct 261 -37 257 -61 257 -119 ct 
257 -491 l  55 -483 l  55 -429 l  120 -429 129 -429 129 -386 ct 129 -134 l 
129 -15 223 7 329 7 ct 363 7 437 7 492 -75 ct 492 7 l  688 0 l  p ef
pom
pum
27544 9582 t
316 -91 m  316 -98 308 -98 306 -98 ct 297 -98 296 -96 294 -87 ct 276 -30 241 -9 218 -9 ct 
196 -9 187 -27 187 -49 ct 187 -62 189 -71 199 -114 ct 222 -200 l  232 -243 254 -264 275 -264 ct 
289 -264 300 -259 304 -255 ct 289 -250 281 -238 281 -226 ct 281 -213 291 -205 303 -205 ct 
319 -205 334 -219 334 -239 ct 334 -265 306 -280 276 -280 ct 244 -280 223 -254 214 -238 ct 
201 -269 175 -280 151 -280 ct 86 -280 51 -197 51 -182 ct 51 -175 59 -175 62 -175 ct 
71 -175 72 -177 74 -186 ct 88 -233 120 -264 150 -264 ct 171 -264 180 -246 180 -225 ct 
180 -212 177 -197 168 -162 ct 146 -76 l  135 -32 116 -9 92 -9 ct 75 -9 64 -18 64 -18 ct 
80 -23 87 -37 87 -47 ct 87 -60 77 -68 65 -68 ct 50 -68 34 -55 34 -34 ct 34 -6 65 7 91 7 ct 
122 7 143 -17 153 -34 ct 163 -9 187 7 216 7 ct 282 7 316 -77 316 -91 ct p ef
pom
pum
14592 3474 t
688 0 m  688 -54 l  622 -54 614 -54 614 -96 ct 614 -491 l  412 -483 l  412 -429 l 
477 -429 486 -429 486 -386 ct 486 -179 l  486 -91 429 -37 345 -37 ct 261 -37 257 -61 257 -119 ct 
257 -491 l  55 -483 l  55 -429 l  120 -429 129 -429 129 -386 ct 129 -134 l 
129 -15 223 7 329 7 ct 363 7 437 7 492 -75 ct 492 7 l  688 0 l  p ef
pom
pum
15290 3834 t
349 -91 m  349 -98 341 -98 338 -98 ct 329 -98 329 -96 325 -83 ct 318 -60 301 -9 266 -9 ct 
261 -9 253 -9 253 -27 ct 253 -42 261 -62 266 -76 ct 277 -106 303 -177 303 -213 ct 
303 -255 278 -280 234 -280 ct 199 -280 171 -264 149 -241 ct 193 -419 l  195 -428 196 -429 196 -431 ct 
196 -439 190 -440 179 -439 ct 113 -433 l  104 -432 97 -432 97 -421 ct 97 -413 104 -413 115 -413 ct 
144 -413 144 -408 144 -402 ct 144 -402 144 -398 142 -388 ct 51 -23 l  48 -15 48 -13 48 -11 ct 
48 -1 55 7 67 7 ct 87 7 91 -9 95 -28 ct 103 -55 103 -56 109 -82 ct 129 -165 l  136 -191 149 -215 168 -234 ct 
177 -243 198 -264 232 -264 ct 256 -264 262 -243 262 -223 ct 262 -186 235 -111 224 -83 ct 
216 -62 215 -58 215 -45 ct 215 -11 239 7 265 7 ct 325 7 349 -86 349 -91 ct p ef
pom
gr
gs
1077 1105 m 29076 1105 l 29076 22104 l 1077 22104 l 1077 1105 l eoclip newpath
gr
gr
0 21000 t 
pom
count op_count sub {pop} repeat countdictstack dict_count sub {end} repeat b4_inc_state restore
%%PageTrailer
%%Trailer
%%EOF
