
\num{ 1.91} & \num{3.299e+01} & \num{8.920e+00} & \num{ 1.89} & \num{1.326e-01} & \num{1.430e-02} & \num{ 3.65} & \num{6.295e+01} & \num{1.630e+01} & \num{ 3.68} & \num{1.666e+00} & \num{2.490e+00} \\
\num{ 1.91} & \num{3.299e+01} & \num{8.920e+00} & \num{ 1.89} & \num{1.326e-01} & \num{1.432e-02} & \num{ 3.65} & \num{6.295e+01} & \num{1.630e+01} & \num{ 3.68} & \num{1.666e+00} & \num{2.492e+00} \\
\num{ 4.32} & \num{1.171e+01} & \num{9.180e+00} & \num{ 1.45} & \num{1.326e-01} & \num{1.107e-02} & \num{ 3.08} & \num{7.296e+01} & \num{1.271e+01} & \num{ 3.34} & \num{2.412e+00} & \num{1.837e+00} \\
\num{ 4.32} & \num{1.171e+01} & \num{9.091e+00} & \num{ 1.45} & \num{1.326e-01} & \num{1.050e-02} & \num{ 3.08} & \num{7.296e+01} & \num{1.317e+01} & \num{ 3.36} & \num{2.365e+00} & \num{1.854e+00} \\
\num{ 4.31} & \num{1.176e+01} & \num{6.029e+00} & \num{ 4.59} & \num{1.326e-01} & \num{4.354e-02} & \num{ 2.06} & \num{9.830e+01} & \num{3.549e+00} & \num{ 2.85} & \num{3.699e+00} & \num{5.671e-01} \\
\num{ 4.31} & \num{1.176e+01} & \num{6.228e+00} & \num{ 4.67} & \num{1.326e-01} & \num{1.034e-01} & \num{ 2.06} & \num{9.830e+01} & \num{3.595e+00} & \num{ 2.85} & \num{3.699e+00} & \num{4.570e-01} \\
\num{ 4.27} & \num{1.196e+01} & \num{4.941e+00} & \num{ 4.34} & \num{1.326e-01} & \num{1.362e-02} & \num{ 2.05} & \num{9.861e+01} & \num{2.530e+00} & \num{ 1.99} & \num{6.731e+00} & \num{3.913e-01} \\
\num{ 4.27} & \num{1.196e+01} & \num{4.987e+00} & \num{ 4.34} & \num{1.326e-01} & \num{1.372e-02} & \num{ 2.05} & \num{9.861e+01} & \num{2.550e+00} & \num{ 1.99} & \num{6.731e+00} & \num{3.644e-01} \\
\num{ 4.27} & \num{1.196e+01} & \num{3.495e+00} & \num{ 4.36} & \num{1.326e-01} & \num{4.655e-02} & \num{ 1.99} & \num{1.005e+02} & \num{1.170e+00} & \num{ 4.68} & \num{8.259e-03} & \num{3.646e-01} \\
\num{ 4.27} & \num{1.196e+01} & \num{3.508e+00} & \num{ 4.36} & \num{1.326e-01} & \num{4.183e-02} & \num{ 1.99} & \num{1.005e+02} & \num{1.182e+00} & \num{ 1.99} & \num{6.731e+00} & \num{2.193e-01} \\
\num{ 2.90} & \num{2.155e+01} & \num{3.205e+00} & \num{ 4.36} & \num{1.326e-01} & \num{9.185e-02} & \num{ 1.94} & \num{1.021e+02} & \num{8.615e-01} & \num{ 4.67} & \num{2.155e-02} & \num{1.609e-01} \\
\num{ 2.90} & \num{2.155e+01} & \num{3.210e+00} & \num{ 4.58} & \num{1.326e-01} & \num{1.677e-01} & \num{ 1.94} & \num{1.021e+02} & \num{8.659e-01} & \num{ 4.68} & \num{8.259e-03} & \num{5.182e-01} \\
\num{ 2.90} & \num{2.155e+01} & \num{2.544e+00} & \num{ 4.36} & \num{1.326e-01} & \num{1.751e-01} & \num{ 4.58} & \num{5.108e+01} & \num{5.098e-01} & \num{ 4.67} & \num{2.155e-02} & \num{6.809e-01} \\
\num{ 2.90} & \num{2.155e+01} & \num{2.542e+00} & \num{ 4.58} & \num{1.326e-01} & \num{3.387e-01} & \num{ 4.68} & \num{5.006e+01} & \num{7.379e-01} & \num{ 4.68} & \num{8.259e-03} & \num{1.176e+00} \\
